<?xml version="1.0" encoding="UTF-8" standalone="no"?>
<!-- Created with Inkscape (http://www.inkscape.org/) -->

<svg
   xmlns:dc="http://purl.org/dc/elements/1.1/"
   xmlns:cc="http://creativecommons.org/ns#"
   xmlns:rdf="http://www.w3.org/1999/02/22-rdf-syntax-ns#"
   xmlns:svg="http://www.w3.org/2000/svg"
   xmlns="http://www.w3.org/2000/svg"
   xmlns:sodipodi="http://sodipodi.sourceforge.net/DTD/sodipodi-0.dtd"
   xmlns:inkscape="http://www.inkscape.org/namespaces/inkscape"
   width="57.363804mm"
   height="66.235847mm"
   viewBox="0 0 57.363804 66.235847"
   version="1.1"
   id="svg8"
   inkscape:version="0.92.4 (5da689c313, 2019-01-14)"
   sodipodi:docname="ufs-logo.svg">
  <defs
     id="defs2">
	
	
	

		
		
		
		
		
		
		
		
		
		
		
		
		
		
		
		
	</defs>
  <sodipodi:namedview
     id="base"
     pagecolor="#ffffff"
     bordercolor="#666666"
     borderopacity="1.0"
     inkscape:pageopacity="0.0"
     inkscape:pageshadow="2"
     inkscape:zoom="1.4"
     inkscape:cx="-41.383845"
     inkscape:cy="85.243159"
     inkscape:document-units="mm"
     inkscape:current-layer="layer1"
     showgrid="false"
     inkscape:snap-intersection-paths="true"
     inkscape:object-paths="true"
     inkscape:snap-smooth-nodes="true"
     inkscape:snap-bbox="true"
     inkscape:snap-bbox-edge-midpoints="true"
     inkscape:bbox-nodes="true"
     inkscape:snap-midpoints="true"
     inkscape:snap-bbox-midpoints="true"
     inkscape:bbox-paths="true"
     inkscape:window-width="1920"
     inkscape:window-height="1013"
     inkscape:window-x="-9"
     inkscape:window-y="-9"
     inkscape:window-maximized="1"
     inkscape:snap-global="true"
     inkscape:snap-nodes="true"
     fit-margin-top="0"
     fit-margin-left="0"
     fit-margin-right="0"
     fit-margin-bottom="0" />
  <metadata
     id="metadata5">
    <rdf:RDF>
      <cc:Work
         rdf:about="">
        <dc:format>image/svg+xml</dc:format>
        <dc:type
           rdf:resource="http://purl.org/dc/dcmitype/StillImage" />
        <dc:title></dc:title>
      </cc:Work>
    </rdf:RDF>
  </metadata>
  <g
     inkscape:label="Layer 1"
     inkscape:groupmode="layer"
     id="layer1"
     transform="translate(-168.56321,-435.46911)">
    <path
       style="color:#000000;clip-rule:nonzero;display:inline;overflow:visible;visibility:visible;opacity:1;isolation:auto;mix-blend-mode:normal;color-interpolation:sRGB;color-interpolation-filters:linearRGB;solid-color:#000000;solid-opacity:1;fill:#ffffff;fill-opacity:1;fill-rule:nonzero;stroke:none;stroke-width:0.87869793;stroke-linecap:square;stroke-linejoin:miter;stroke-miterlimit:4;stroke-dasharray:none;stroke-dashoffset:0;stroke-opacity:1;color-rendering:auto;image-rendering:auto;shape-rendering:auto;text-rendering:auto;enable-background:accumulate"
       d="m 197.17755,437.38853 -27.12037,15.65803 -0.005,31.32288 27.12718,15.66212 27.12445,-15.6653 5.4e-4,-31.31607 z"
       id="path4879"
       inkscape:connector-curvature="0" />
    <path
       class="cls-3"
       d="m 199.52908,500.34072 21.65469,-12.50139 4.70318,-2.721 8.1e-4,-5.42683 -5.4e-4,-25.00422 8.1e-4,-2.63654 -28.6422,-16.53662 -2.28276,1.31923 -21.92612,12.65972 -4.43177,2.56268 -0.003,5.11936 0.003,25.31168 -8.1e-4,2.63655 28.64225,16.53661 z m -28.70977,-16.57557 0.004,-30.43781 26.35399,-15.21564 26.36059,15.21929 -2.1e-4,30.43105 v 0 l -26.35792,15.2224 z"
       id="path1094"
       inkscape:connector-curvature="0"
       style="display:inline;isolation:isolate;fill:#000000;fill-opacity:1;stroke:#a4c4e1;stroke-width:0.07794774;stroke-opacity:0.57254902" />
    <g
       id="g1668"
       transform="matrix(0.20440388,0,0,0.20440388,187.58943,376.46557)">
      <rect
         y="-462.05911"
         x="-80.555443"
         height="21.547546"
         width="67.288406"
         id="rect1058"
         style="color:#000000;clip-rule:nonzero;display:inline;overflow:visible;visibility:visible;opacity:1;isolation:auto;mix-blend-mode:normal;color-interpolation:sRGB;color-interpolation-filters:linearRGB;solid-color:#000000;solid-opacity:1;fill:#000000;fill-opacity:1;fill-rule:nonzero;stroke:none;stroke-width:13.39564896;stroke-linecap:square;stroke-linejoin:miter;stroke-miterlimit:10;stroke-dasharray:none;stroke-dashoffset:0;stroke-opacity:1;color-rendering:auto;image-rendering:auto;shape-rendering:auto;text-rendering:auto;enable-background:accumulate"
         transform="scale(-1)" />
      <path
         style="fill:#e30613;fill-opacity:1;stroke-width:2.6277504"
         d="M -19.947819,410.94936 H 1.5997311 v 53.60611 c 0,14.97818 -14.7154001,27.06583 -33.1096501,27.06583 -18.39426,0 -33.10966,-12.08765 -33.10966,-27.06583 v -53.60611 h 21.54755 v 53.60611 c 0,4.99272 5.25551,9.19712 11.56211,9.19712 6.3066,0 11.5621,-4.2044 11.5621,-9.19712 z"
         id="path1022"
         inkscape:connector-curvature="0" />
      <path
         id="path1024"
         d="m 98.020744,468.62478 c 4.494186,2.99615 13.482566,5.99228 20.972876,5.99228 7.49032,0 10.48644,-2.24711 10.48644,-5.99228 0,-3.74515 -2.2471,-5.99226 -11.23548,-8.98838 -15.72965,-5.24321 -22.470946,-14.23159 -21.721896,-23.21997 0,-14.23161 11.984496,-25.46707 31.459316,-25.46707 8.98838,0 16.4787,2.24708 21.72191,4.49419 l -3.74514,16.47869 c -3.74518,-2.24711 -10.48645,-4.49419 -16.47871,-4.49419 -5.99225,0 -8.98837,2.24708 -8.98837,5.99226 0,3.74514 2.99612,5.99225 12.73352,8.98838 14.98064,5.2432 20.97289,12.73352 20.97289,23.969 0,14.23162 -11.23547,24.71806 -32.9574,24.71806 -9.73739,0 -18.72577,-2.24711 -24.718016,-5.24324 z"
         inkscape:connector-curvature="0"
         style="fill:#e30613;fill-opacity:1;stroke-width:7.49031639" />
      <path
         style="fill:none;fill-rule:evenodd;stroke:#e30613;stroke-width:21;stroke-linecap:butt;stroke-linejoin:miter;stroke-miterlimit:4;stroke-dasharray:none;stroke-opacity:1"
         d="m -64.619579,509.92409 h 33.10965 c 33.1096501,0 53.24242,-27.94992 78.40527,-58.63876 25.19465,-28.554 45.327403,-58.63875 78.437049,-58.63875 h 33.10966"
         id="path1054"
         inkscape:connector-curvature="0"
         sodipodi:nodetypes="ccccc" />
    </g>
  </g>
</svg>
